d:\AppServ\MySQL\bin\mysqld-nt, Version: 5.0.24a-community-nt-log. started with:
TCP Port: 3306, Named Pipe: (null)
Time                 Id Command    Argument
d:\AppServ\MySQL\bin\mysqld-nt, Version: 5.0.24a-community-nt-log. started with:
TCP Port: 3306, Named Pipe: (null)
Time                 Id Command    Argument
d:\AppServ\MySQL\bin\mysqld-nt, Version: 5.0.24a-community-nt-log. started with:
TCP Port: 3306, Named Pipe: (null)
Time                 Id Command    Argument
d:\AppServ\MySQL\bin\mysqld-nt, Version: 5.0.24a-community-nt-log. started with:
TCP Port: 3306, Named Pipe: (null)
Time                 Id Command    Argument
d:\AppServ\MySQL\bin\mysqld-nt, Version: 5.0.24a-community-nt-log. started with:
TCP Port: 3306, Named Pipe: (null)
Time                 Id Command    Argument
d:\AppServ\MySQL\bin\mysqld-nt, Version: 5.0.24a-community-nt-log. started with:
TCP Port: 3306, Named Pipe: (null)
Time                 Id Command    Argument
d:\AppServ\MySQL\bin\mysqld-nt, Version: 5.0.24a-community-nt-log. started with:
TCP Port: 3306, Named Pipe: (null)
Time                 Id Command    Argument
d:\AppServ\MySQL\bin\mysqld-nt, Version: 5.0.24a-community-nt-log. started with:
TCP Port: 3306, Named Pipe: (null)
Time                 Id Command    Argument
d:\AppServ\MySQL\bin\mysqld-nt, Version: 5.0.24a-community-nt-log. started with:
TCP Port: 3306, Named Pipe: (null)
Time                 Id Command    Argument
d:\AppServ\MySQL\bin\mysqld-nt, Version: 5.0.24a-community-nt-log. started with:
TCP Port: 3306, Named Pipe: (null)
Time                 Id Command    Argument
d:\AppServ\MySQL\bin\mysqld-nt, Version: 5.0.24a-community-nt-log. started with:
TCP Port: 3306, Named Pipe: (null)
Time                 Id Command    Argument
d:\AppServ\MySQL\bin\mysqld-nt, Version: 5.0.24a-community-nt-log. started with:
TCP Port: 3306, Named Pipe: (null)
Time                 Id Command    Argument
d:\AppServ\MySQL\bin\mysqld-nt, Version: 5.0.24a-community-nt-log. started with:
TCP Port: 3306, Named Pipe: (null)
Time                 Id Command    Argument
d:\AppServ\MySQL\bin\mysqld-nt, Version: 5.0.24a-community-nt-log. started with:
TCP Port: 3306, Named Pipe: (null)
Time                 Id Command    Argument
d:\AppServ\MySQL\bin\mysqld-nt, Version: 5.0.24a-community-nt-log. started with:
TCP Port: 3306, Named Pipe: (null)
Time                 Id Command    Argument
d:\AppServ\MySQL\bin\mysqld-nt, Version: 5.0.24a-community-nt-log. started with:
TCP Port: 3306, Named Pipe: (null)
Time                 Id Command    Argument
d:\AppServ\MySQL\bin\mysqld-nt, Version: 5.0.24a-community-nt-log. started with:
TCP Port: 3306, Named Pipe: (null)
Time                 Id Command    Argument
d:\AppServ\MySQL\bin\mysqld-nt, Version: 5.0.24a-community-nt-log. started with:
TCP Port: 3306, Named Pipe: (null)
Time                 Id Command    Argument
